<svg xmlns="http://www.w3.org/2000/svg" version="1.1" width="20cm" height="25cm" viewBox="0 0 0.2 0.25">
<g fill="black"><g>
<rect x="0" y="0" width="0.005" height="0.005"/>
<rect x="0.005" y="0" width="0.005" height="0.005"/>
<rect x="0.01" y="0" width="0.005" height="0.005"/>
<rect x="0.015" y="0" width="0.005" height="0.005"/>
<rect x="0.02" y="0" width="0.005" height="0.005"/>
<rect x="0.025" y="0" width="0.005" height="0.005"/>
<rect x="0.03" y="0" width="0.005" height="0.005"/>
<rect x="0.035" y="0" width="0.005" height="0.005"/>
<rect x="0" y="0.005" width="0.005" height="0.005"/>
<rect x="0.015" y="0.005" width="0.005" height="0.005"/>
<rect x="0.025" y="0.005" width="0.005" height="0.005"/>
<rect x="0.035" y="0.005" width="0.005" height="0.005"/>
<rect x="0" y="0.01" width="0.005" height="0.005"/>
<rect x="0.005" y="0.01" width="0.005" height="0.005"/>
<rect x="0.025" y="0.01" width="0.005" height="0.005"/>
<rect x="0.035" y="0.01" width="0.005" height="0.005"/>
<rect x="0" y="0.015" width="0.005" height="0.005"/>
<rect x="0.005" y="0.015" width="0.005" height="0.005"/>
<rect x="0.02" y="0.015" width="0.005" height="0.005"/>
<rect x="0.025" y="0.015" width="0.005" height="0.005"/>
<rect x="0.03" y="0.015" width="0.005" height="0.005"/>
<rect x="0.035" y="0.015" width="0.005" height="0.005"/>
<rect x="0" y="0.02" width="0.005" height="0.005"/>
<rect x="0.01" y="0.02" width="0.005" height="0.005"/>
<rect x="0.02" y="0.02" width="0.005" height="0.005"/>
<rect x="0.025" y="0.02" width="0.005" height="0.005"/>
<rect x="0.03" y="0.02" width="0.005" height="0.005"/>
<rect x="0.035" y="0.02" width="0.005" height="0.005"/>
<rect x="0" y="0.025" width="0.005" height="0.005"/>
<rect x="0.005" y="0.025" width="0.005" height="0.005"/>
<rect x="0.015" y="0.025" width="0.005" height="0.005"/>
<rect x="0.03" y="0.025" width="0.005" height="0.005"/>
<rect x="0.035" y="0.025" width="0.005" height="0.005"/>
<rect x="0" y="0.03" width="0.005" height="0.005"/>
<rect x="0.005" y="0.03" width="0.005" height="0.005"/>
<rect x="0.01" y="0.03" width="0.005" height="0.005"/>
<rect x="0.015" y="0.03" width="0.005" height="0.005"/>
<rect x="0.025" y="0.03" width="0.005" height="0.005"/>
<rect x="0.03" y="0.03" width="0.005" height="0.005"/>
<rect x="0.035" y="0.03" width="0.005" height="0.005"/>
<rect x="0" y="0.035" width="0.005" height="0.005"/>
<rect x="0.005" y="0.035" width="0.005" height="0.005"/>
<rect x="0.01" y="0.035" width="0.005" height="0.005"/>
<rect x="0.015" y="0.035" width="0.005" height="0.005"/>
<rect x="0.02" y="0.035" width="0.005" height="0.005"/>
<rect x="0.025" y="0.035" width="0.005" height="0.005"/>
<rect x="0.03" y="0.035" width="0.005" height="0.005"/>
<rect x="0.035" y="0.035" width="0.005" height="0.005"/>
</g>
<g>
<rect x="0.05" y="0" width="0.005" height="0.005"/>
<rect x="0.055" y="0" width="0.005" height="0.005"/>
<rect x="0.06" y="0" width="0.005" height="0.005"/>
<rect x="0.065" y="0" width="0.005" height="0.005"/>
<rect x="0.07" y="0" width="0.005" height="0.005"/>
<rect x="0.075" y="0" width="0.005" height="0.005"/>
<rect x="0.08" y="0" width="0.005" height="0.005"/>
<rect x="0.085" y="0" width="0.005" height="0.005"/>
<rect x="0.05" y="0.005" width="0.005" height="0.005"/>
<rect x="0.065" y="0.005" width="0.005" height="0.005"/>
<rect x="0.08" y="0.005" width="0.005" height="0.005"/>
<rect x="0.085" y="0.005" width="0.005" height="0.005"/>
<rect x="0.05" y="0.01" width="0.005" height="0.005"/>
<rect x="0.055" y="0.01" width="0.005" height="0.005"/>
<rect x="0.065" y="0.01" width="0.005" height="0.005"/>
<rect x="0.085" y="0.01" width="0.005" height="0.005"/>
<rect x="0.05" y="0.015" width="0.005" height="0.005"/>
<rect x="0.075" y="0.015" width="0.005" height="0.005"/>
<rect x="0.08" y="0.015" width="0.005" height="0.005"/>
<rect x="0.085" y="0.015" width="0.005" height="0.005"/>
<rect x="0.05" y="0.02" width="0.005" height="0.005"/>
<rect x="0.055" y="0.02" width="0.005" height="0.005"/>
<rect x="0.07" y="0.02" width="0.005" height="0.005"/>
<rect x="0.075" y="0.02" width="0.005" height="0.005"/>
<rect x="0.08" y="0.02" width="0.005" height="0.005"/>
<rect x="0.085" y="0.02" width="0.005" height="0.005"/>
<rect x="0.05" y="0.025" width="0.005" height="0.005"/>
<rect x="0.06" y="0.025" width="0.005" height="0.005"/>
<rect x="0.075" y="0.025" width="0.005" height="0.005"/>
<rect x="0.085" y="0.025" width="0.005" height="0.005"/>
<rect x="0.05" y="0.03" width="0.005" height="0.005"/>
<rect x="0.055" y="0.03" width="0.005" height="0.005"/>
<rect x="0.06" y="0.03" width="0.005" height="0.005"/>
<rect x="0.07" y="0.03" width="0.005" height="0.005"/>
<rect x="0.075" y="0.03" width="0.005" height="0.005"/>
<rect x="0.085" y="0.03" width="0.005" height="0.005"/>
<rect x="0.05" y="0.035" width="0.005" height="0.005"/>
<rect x="0.055" y="0.035" width="0.005" height="0.005"/>
<rect x="0.06" y="0.035" width="0.005" height="0.005"/>
<rect x="0.065" y="0.035" width="0.005" height="0.005"/>
<rect x="0.07" y="0.035" width="0.005" height="0.005"/>
<rect x="0.075" y="0.035" width="0.005" height="0.005"/>
<rect x="0.08" y="0.035" width="0.005" height="0.005"/>
<rect x="0.085" y="0.035" width="0.005" height="0.005"/>
</g>
<g>
<rect x="0.1" y="0" width="0.005" height="0.005"/>
<rect x="0.105" y="0" width="0.005" height="0.005"/>
<rect x="0.11" y="0" width="0.005" height="0.005"/>
<rect x="0.115" y="0" width="0.005" height="0.005"/>
<rect x="0.12" y="0" width="0.005" height="0.005"/>
<rect x="0.125" y="0" width="0.005" height="0.005"/>
<rect x="0.13" y="0" width="0.005" height="0.005"/>
<rect x="0.135" y="0" width="0.005" height="0.005"/>
<rect x="0.1" y="0.005" width="0.005" height="0.005"/>
<rect x="0.115" y="0.005" width="0.005" height="0.005"/>
<rect x="0.135" y="0.005" width="0.005" height="0.005"/>
<rect x="0.1" y="0.01" width="0.005" height="0.005"/>
<rect x="0.105" y="0.01" width="0.005" height="0.005"/>
<rect x="0.115" y="0.01" width="0.005" height="0.005"/>
<rect x="0.12" y="0.01" width="0.005" height="0.005"/>
<rect x="0.13" y="0.01" width="0.005" height="0.005"/>
<rect x="0.135" y="0.01" width="0.005" height="0.005"/>
<rect x="0.1" y="0.015" width="0.005" height="0.005"/>
<rect x="0.11" y="0.015" width="0.005" height="0.005"/>
<rect x="0.115" y="0.015" width="0.005" height="0.005"/>
<rect x="0.12" y="0.015" width="0.005" height="0.005"/>
<rect x="0.125" y="0.015" width="0.005" height="0.005"/>
<rect x="0.13" y="0.015" width="0.005" height="0.005"/>
<rect x="0.135" y="0.015" width="0.005" height="0.005"/>
<rect x="0.1" y="0.02" width="0.005" height="0.005"/>
<rect x="0.105" y="0.02" width="0.005" height="0.005"/>
<rect x="0.11" y="0.02" width="0.005" height="0.005"/>
<rect x="0.12" y="0.02" width="0.005" height="0.005"/>
<rect x="0.125" y="0.02" width="0.005" height="0.005"/>
<rect x="0.135" y="0.02" width="0.005" height="0.005"/>
<rect x="0.1" y="0.025" width="0.005" height="0.005"/>
<rect x="0.105" y="0.025" width="0.005" height="0.005"/>
<rect x="0.11" y="0.025" width="0.005" height="0.005"/>
<rect x="0.115" y="0.025" width="0.005" height="0.005"/>
<rect x="0.125" y="0.025" width="0.005" height="0.005"/>
<rect x="0.13" y="0.025" width="0.005" height="0.005"/>
<rect x="0.135" y="0.025" width="0.005" height="0.005"/>
<rect x="0.1" y="0.03" width="0.005" height="0.005"/>
<rect x="0.105" y="0.03" width="0.005" height="0.005"/>
<rect x="0.11" y="0.03" width="0.005" height="0.005"/>
<rect x="0.13" y="0.03" width="0.005" height="0.005"/>
<rect x="0.135" y="0.03" width="0.005" height="0.005"/>
<rect x="0.1" y="0.035" width="0.005" height="0.005"/>
<rect x="0.105" y="0.035" width="0.005" height="0.005"/>
<rect x="0.11" y="0.035" width="0.005" height="0.005"/>
<rect x="0.115" y="0.035" width="0.005" height="0.005"/>
<rect x="0.12" y="0.035" width="0.005" height="0.005"/>
<rect x="0.125" y="0.035" width="0.005" height="0.005"/>
<rect x="0.13" y="0.035" width="0.005" height="0.005"/>
<rect x="0.135" y="0.035" width="0.005" height="0.005"/>
</g>
<g>
<rect x="0.15" y="0" width="0.005" height="0.005"/>
<rect x="0.155" y="0" width="0.005" height="0.005"/>
<rect x="0.16" y="0" width="0.005" height="0.005"/>
<rect x="0.165" y="0" width="0.005" height="0.005"/>
<rect x="0.17" y="0" width="0.005" height="0.005"/>
<rect x="0.175" y="0" width="0.005" height="0.005"/>
<rect x="0.18" y="0" width="0.005" height="0.005"/>
<rect x="0.185" y="0" width="0.005" height="0.005"/>
<rect x="0.15" y="0.005" width="0.005" height="0.005"/>
<rect x="0.17" y="0.005" width="0.005" height="0.005"/>
<rect x="0.175" y="0.005" width="0.005" height="0.005"/>
<rect x="0.185" y="0.005" width="0.005" height="0.005"/>
<rect x="0.15" y="0.01" width="0.005" height="0.005"/>
<rect x="0.155" y="0.01" width="0.005" height="0.005"/>
<rect x="0.16" y="0.01" width="0.005" height="0.005"/>
<rect x="0.165" y="0.01" width="0.005" height="0.005"/>
<rect x="0.185" y="0.01" width="0.005" height="0.005"/>
<rect x="0.15" y="0.015" width="0.005" height="0.005"/>
<rect x="0.16" y="0.015" width="0.005" height="0.005"/>
<rect x="0.165" y="0.015" width="0.005" height="0.005"/>
<rect x="0.185" y="0.015" width="0.005" height="0.005"/>
<rect x="0.15" y="0.02" width="0.005" height="0.005"/>
<rect x="0.16" y="0.02" width="0.005" height="0.005"/>
<rect x="0.17" y="0.02" width="0.005" height="0.005"/>
<rect x="0.175" y="0.02" width="0.005" height="0.005"/>
<rect x="0.185" y="0.02" width="0.005" height="0.005"/>
<rect x="0.15" y="0.025" width="0.005" height="0.005"/>
<rect x="0.165" y="0.025" width="0.005" height="0.005"/>
<rect x="0.17" y="0.025" width="0.005" height="0.005"/>
<rect x="0.18" y="0.025" width="0.005" height="0.005"/>
<rect x="0.185" y="0.025" width="0.005" height="0.005"/>
<rect x="0.15" y="0.03" width="0.005" height="0.005"/>
<rect x="0.155" y="0.03" width="0.005" height="0.005"/>
<rect x="0.17" y="0.03" width="0.005" height="0.005"/>
<rect x="0.175" y="0.03" width="0.005" height="0.005"/>
<rect x="0.18" y="0.03" width="0.005" height="0.005"/>
<rect x="0.185" y="0.03" width="0.005" height="0.005"/>
<rect x="0.15" y="0.035" width="0.005" height="0.005"/>
<rect x="0.155" y="0.035" width="0.005" height="0.005"/>
<rect x="0.16" y="0.035" width="0.005" height="0.005"/>
<rect x="0.165" y="0.035" width="0.005" height="0.005"/>
<rect x="0.17" y="0.035" width="0.005" height="0.005"/>
<rect x="0.175" y="0.035" width="0.005" height="0.005"/>
<rect x="0.18" y="0.035" width="0.005" height="0.005"/>
<rect x="0.185" y="0.035" width="0.005" height="0.005"/>
</g>
<g>
<rect x="0" y="0.05" width="0.005" height="0.005"/>
<rect x="0.005" y="0.05" width="0.005" height="0.005"/>
<rect x="0.01" y="0.05" width="0.005" height="0.005"/>
<rect x="0.015" y="0.05" width="0.005" height="0.005"/>
<rect x="0.02" y="0.05" width="0.005" height="0.005"/>
<rect x="0.025" y="0.05" width="0.005" height="0.005"/>
<rect x="0.03" y="0.05" width="0.005" height="0.005"/>
<rect x="0.035" y="0.05" width="0.005" height="0.005"/>
<rect x="0" y="0.055" width="0.005" height="0.005"/>
<rect x="0.02" y="0.055" width="0.005" height="0.005"/>
<rect x="0.03" y="0.055" width="0.005" height="0.005"/>
<rect x="0.035" y="0.055" width="0.005" height="0.005"/>
<rect x="0" y="0.06" width="0.005" height="0.005"/>
<rect x="0.025" y="0.06" width="0.005" height="0.005"/>
<rect x="0.03" y="0.06" width="0.005" height="0.005"/>
<rect x="0.035" y="0.06" width="0.005" height="0.005"/>
<rect x="0" y="0.065" width="0.005" height="0.005"/>
<rect x="0.01" y="0.065" width="0.005" height="0.005"/>
<rect x="0.035" y="0.065" width="0.005" height="0.005"/>
<rect x="0" y="0.07" width="0.005" height="0.005"/>
<rect x="0.005" y="0.07" width="0.005" height="0.005"/>
<rect x="0.01" y="0.07" width="0.005" height="0.005"/>
<rect x="0.02" y="0.07" width="0.005" height="0.005"/>
<rect x="0.03" y="0.07" width="0.005" height="0.005"/>
<rect x="0.035" y="0.07" width="0.005" height="0.005"/>
<rect x="0" y="0.075" width="0.005" height="0.005"/>
<rect x="0.01" y="0.075" width="0.005" height="0.005"/>
<rect x="0.015" y="0.075" width="0.005" height="0.005"/>
<rect x="0.02" y="0.075" width="0.005" height="0.005"/>
<rect x="0.025" y="0.075" width="0.005" height="0.005"/>
<rect x="0.03" y="0.075" width="0.005" height="0.005"/>
<rect x="0.035" y="0.075" width="0.005" height="0.005"/>
<rect x="0" y="0.08" width="0.005" height="0.005"/>
<rect x="0.01" y="0.08" width="0.005" height="0.005"/>
<rect x="0.015" y="0.08" width="0.005" height="0.005"/>
<rect x="0.02" y="0.08" width="0.005" height="0.005"/>
<rect x="0.03" y="0.08" width="0.005" height="0.005"/>
<rect x="0.035" y="0.08" width="0.005" height="0.005"/>
<rect x="0" y="0.085" width="0.005" height="0.005"/>
<rect x="0.005" y="0.085" width="0.005" height="0.005"/>
<rect x="0.01" y="0.085" width="0.005" height="0.005"/>
<rect x="0.015" y="0.085" width="0.005" height="0.005"/>
<rect x="0.02" y="0.085" width="0.005" height="0.005"/>
<rect x="0.025" y="0.085" width="0.005" height="0.005"/>
<rect x="0.03" y="0.085" width="0.005" height="0.005"/>
<rect x="0.035" y="0.085" width="0.005" height="0.005"/>
</g>
<g>
<rect x="0.05" y="0.05" width="0.005" height="0.005"/>
<rect x="0.055" y="0.05" width="0.005" height="0.005"/>
<rect x="0.06" y="0.05" width="0.005" height="0.005"/>
<rect x="0.065" y="0.05" width="0.005" height="0.005"/>
<rect x="0.07" y="0.05" width="0.005" height="0.005"/>
<rect x="0.075" y="0.05" width="0.005" height="0.005"/>
<rect x="0.08" y="0.05" width="0.005" height="0.005"/>
<rect x="0.085" y="0.05" width="0.005" height="0.005"/>
<rect x="0.05" y="0.055" width="0.005" height="0.005"/>
<rect x="0.075" y="0.055" width="0.005" height="0.005"/>
<rect x="0.08" y="0.055" width="0.005" height="0.005"/>
<rect x="0.085" y="0.055" width="0.005" height="0.005"/>
<rect x="0.05" y="0.06" width="0.005" height="0.005"/>
<rect x="0.065" y="0.06" width="0.005" height="0.005"/>
<rect x="0.07" y="0.06" width="0.005" height="0.005"/>
<rect x="0.075" y="0.06" width="0.005" height="0.005"/>
<rect x="0.085" y="0.06" width="0.005" height="0.005"/>
<rect x="0.05" y="0.065" width="0.005" height="0.005"/>
<rect x="0.065" y="0.065" width="0.005" height="0.005"/>
<rect x="0.08" y="0.065" width="0.005" height="0.005"/>
<rect x="0.085" y="0.065" width="0.005" height="0.005"/>
<rect x="0.05" y="0.07" width="0.005" height="0.005"/>
<rect x="0.06" y="0.07" width="0.005" height="0.005"/>
<rect x="0.07" y="0.07" width="0.005" height="0.005"/>
<rect x="0.085" y="0.07" width="0.005" height="0.005"/>
<rect x="0.05" y="0.075" width="0.005" height="0.005"/>
<rect x="0.055" y="0.075" width="0.005" height="0.005"/>
<rect x="0.06" y="0.075" width="0.005" height="0.005"/>
<rect x="0.08" y="0.075" width="0.005" height="0.005"/>
<rect x="0.085" y="0.075" width="0.005" height="0.005"/>
<rect x="0.05" y="0.08" width="0.005" height="0.005"/>
<rect x="0.06" y="0.08" width="0.005" height="0.005"/>
<rect x="0.075" y="0.08" width="0.005" height="0.005"/>
<rect x="0.08" y="0.08" width="0.005" height="0.005"/>
<rect x="0.085" y="0.08" width="0.005" height="0.005"/>
<rect x="0.05" y="0.085" width="0.005" height="0.005"/>
<rect x="0.055" y="0.085" width="0.005" height="0.005"/>
<rect x="0.06" y="0.085" width="0.005" height="0.005"/>
<rect x="0.065" y="0.085" width="0.005" height="0.005"/>
<rect x="0.07" y="0.085" width="0.005" height="0.005"/>
<rect x="0.075" y="0.085" width="0.005" height="0.005"/>
<rect x="0.08" y="0.085" width="0.005" height="0.005"/>
<rect x="0.085" y="0.085" width="0.005" height="0.005"/>
</g>
<g>
<rect x="0.1" y="0.05" width="0.005" height="0.005"/>
<rect x="0.105" y="0.05" width="0.005" height="0.005"/>
<rect x="0.11" y="0.05" width="0.005" height="0.005"/>
<rect x="0.115" y="0.05" width="0.005" height="0.005"/>
<rect x="0.12" y="0.05" width="0.005" height="0.005"/>
<rect x="0.125" y="0.05" width="0.005" height="0.005"/>
<rect x="0.13" y="0.05" width="0.005" height="0.005"/>
<rect x="0.135" y="0.05" width="0.005" height="0.005"/>
<rect x="0.1" y="0.055" width="0.005" height="0.005"/>
<rect x="0.105" y="0.055" width="0.005" height="0.005"/>
<rect x="0.11" y="0.055" width="0.005" height="0.005"/>
<rect x="0.115" y="0.055" width="0.005" height="0.005"/>
<rect x="0.12" y="0.055" width="0.005" height="0.005"/>
<rect x="0.125" y="0.055" width="0.005" height="0.005"/>
<rect x="0.135" y="0.055" width="0.005" height="0.005"/>
<rect x="0.1" y="0.06" width="0.005" height="0.005"/>
<rect x="0.105" y="0.06" width="0.005" height="0.005"/>
<rect x="0.115" y="0.06" width="0.005" height="0.005"/>
<rect x="0.13" y="0.06" width="0.005" height="0.005"/>
<rect x="0.135" y="0.06" width="0.005" height="0.005"/>
<rect x="0.1" y="0.065" width="0.005" height="0.005"/>
<rect x="0.11" y="0.065" width="0.005" height="0.005"/>
<rect x="0.12" y="0.065" width="0.005" height="0.005"/>
<rect x="0.125" y="0.065" width="0.005" height="0.005"/>
<rect x="0.135" y="0.065" width="0.005" height="0.005"/>
<rect x="0.1" y="0.07" width="0.005" height="0.005"/>
<rect x="0.105" y="0.07" width="0.005" height="0.005"/>
<rect x="0.125" y="0.07" width="0.005" height="0.005"/>
<rect x="0.135" y="0.07" width="0.005" height="0.005"/>
<rect x="0.1" y="0.075" width="0.005" height="0.005"/>
<rect x="0.105" y="0.075" width="0.005" height="0.005"/>
<rect x="0.11" y="0.075" width="0.005" height="0.005"/>
<rect x="0.115" y="0.075" width="0.005" height="0.005"/>
<rect x="0.12" y="0.075" width="0.005" height="0.005"/>
<rect x="0.13" y="0.075" width="0.005" height="0.005"/>
<rect x="0.135" y="0.075" width="0.005" height="0.005"/>
<rect x="0.1" y="0.08" width="0.005" height="0.005"/>
<rect x="0.105" y="0.08" width="0.005" height="0.005"/>
<rect x="0.11" y="0.08" width="0.005" height="0.005"/>
<rect x="0.115" y="0.08" width="0.005" height="0.005"/>
<rect x="0.125" y="0.08" width="0.005" height="0.005"/>
<rect x="0.135" y="0.08" width="0.005" height="0.005"/>
<rect x="0.1" y="0.085" width="0.005" height="0.005"/>
<rect x="0.105" y="0.085" width="0.005" height="0.005"/>
<rect x="0.11" y="0.085" width="0.005" height="0.005"/>
<rect x="0.115" y="0.085" width="0.005" height="0.005"/>
<rect x="0.12" y="0.085" width="0.005" height="0.005"/>
<rect x="0.125" y="0.085" width="0.005" height="0.005"/>
<rect x="0.13" y="0.085" width="0.005" height="0.005"/>
<rect x="0.135" y="0.085" width="0.005" height="0.005"/>
</g>
<g>
<rect x="0.15" y="0.05" width="0.005" height="0.005"/>
<rect x="0.155" y="0.05" width="0.005" height="0.005"/>
<rect x="0.16" y="0.05" width="0.005" height="0.005"/>
<rect x="0.165" y="0.05" width="0.005" height="0.005"/>
<rect x="0.17" y="0.05" width="0.005" height="0.005"/>
<rect x="0.175" y="0.05" width="0.005" height="0.005"/>
<rect x="0.18" y="0.05" width="0.005" height="0.005"/>
<rect x="0.185" y="0.05" width="0.005" height="0.005"/>
<rect x="0.15" y="0.055" width="0.005" height="0.005"/>
<rect x="0.155" y="0.055" width="0.005" height="0.005"/>
<rect x="0.16" y="0.055" width="0.005" height="0.005"/>
<rect x="0.165" y="0.055" width="0.005" height="0.005"/>
<rect x="0.175" y="0.055" width="0.005" height="0.005"/>
<rect x="0.18" y="0.055" width="0.005" height="0.005"/>
<rect x="0.185" y="0.055" width="0.005" height="0.005"/>
<rect x="0.15" y="0.06" width="0.005" height="0.005"/>
<rect x="0.155" y="0.06" width="0.005" height="0.005"/>
<rect x="0.16" y="0.06" width="0.005" height="0.005"/>
<rect x="0.165" y="0.06" width="0.005" height="0.005"/>
<rect x="0.18" y="0.06" width="0.005" height="0.005"/>
<rect x="0.185" y="0.06" width="0.005" height="0.005"/>
<rect x="0.15" y="0.065" width="0.005" height="0.005"/>
<rect x="0.155" y="0.065" width="0.005" height="0.005"/>
<rect x="0.165" y="0.065" width="0.005" height="0.005"/>
<rect x="0.175" y="0.065" width="0.005" height="0.005"/>
<rect x="0.18" y="0.065" width="0.005" height="0.005"/>
<rect x="0.185" y="0.065" width="0.005" height="0.005"/>
<rect x="0.15" y="0.07" width="0.005" height="0.005"/>
<rect x="0.16" y="0.07" width="0.005" height="0.005"/>
<rect x="0.18" y="0.07" width="0.005" height="0.005"/>
<rect x="0.185" y="0.07" width="0.005" height="0.005"/>
<rect x="0.15" y="0.075" width="0.005" height="0.005"/>
<rect x="0.155" y="0.075" width="0.005" height="0.005"/>
<rect x="0.16" y="0.075" width="0.005" height="0.005"/>
<rect x="0.165" y="0.075" width="0.005" height="0.005"/>
<rect x="0.185" y="0.075" width="0.005" height="0.005"/>
<rect x="0.15" y="0.08" width="0.005" height="0.005"/>
<rect x="0.155" y="0.08" width="0.005" height="0.005"/>
<rect x="0.165" y="0.08" width="0.005" height="0.005"/>
<rect x="0.175" y="0.08" width="0.005" height="0.005"/>
<rect x="0.18" y="0.08" width="0.005" height="0.005"/>
<rect x="0.185" y="0.08" width="0.005" height="0.005"/>
<rect x="0.15" y="0.085" width="0.005" height="0.005"/>
<rect x="0.155" y="0.085" width="0.005" height="0.005"/>
<rect x="0.16" y="0.085" width="0.005" height="0.005"/>
<rect x="0.165" y="0.085" width="0.005" height="0.005"/>
<rect x="0.17" y="0.085" width="0.005" height="0.005"/>
<rect x="0.175" y="0.085" width="0.005" height="0.005"/>
<rect x="0.18" y="0.085" width="0.005" height="0.005"/>
<rect x="0.185" y="0.085" width="0.005" height="0.005"/>
</g>
<g>
<rect x="0" y="0.1" width="0.005" height="0.005"/>
<rect x="0.005" y="0.1" width="0.005" height="0.005"/>
<rect x="0.01" y="0.1" width="0.005" height="0.005"/>
<rect x="0.015" y="0.1" width="0.005" height="0.005"/>
<rect x="0.02" y="0.1" width="0.005" height="0.005"/>
<rect x="0.025" y="0.1" width="0.005" height="0.005"/>
<rect x="0.03" y="0.1" width="0.005" height="0.005"/>
<rect x="0.035" y="0.1" width="0.005" height="0.005"/>
<rect x="0" y="0.105" width="0.005" height="0.005"/>
<rect x="0.005" y="0.105" width="0.005" height="0.005"/>
<rect x="0.01" y="0.105" width="0.005" height="0.005"/>
<rect x="0.02" y="0.105" width="0.005" height="0.005"/>
<rect x="0.025" y="0.105" width="0.005" height="0.005"/>
<rect x="0.03" y="0.105" width="0.005" height="0.005"/>
<rect x="0.035" y="0.105" width="0.005" height="0.005"/>
<rect x="0" y="0.11" width="0.005" height="0.005"/>
<rect x="0.01" y="0.11" width="0.005" height="0.005"/>
<rect x="0.02" y="0.11" width="0.005" height="0.005"/>
<rect x="0.035" y="0.11" width="0.005" height="0.005"/>
<rect x="0" y="0.115" width="0.005" height="0.005"/>
<rect x="0.005" y="0.115" width="0.005" height="0.005"/>
<rect x="0.01" y="0.115" width="0.005" height="0.005"/>
<rect x="0.015" y="0.115" width="0.005" height="0.005"/>
<rect x="0.035" y="0.115" width="0.005" height="0.005"/>
<rect x="0" y="0.12" width="0.005" height="0.005"/>
<rect x="0.005" y="0.12" width="0.005" height="0.005"/>
<rect x="0.035" y="0.12" width="0.005" height="0.005"/>
<rect x="0" y="0.125" width="0.005" height="0.005"/>
<rect x="0.02" y="0.125" width="0.005" height="0.005"/>
<rect x="0.03" y="0.125" width="0.005" height="0.005"/>
<rect x="0.035" y="0.125" width="0.005" height="0.005"/>
<rect x="0" y="0.13" width="0.005" height="0.005"/>
<rect x="0.01" y="0.13" width="0.005" height="0.005"/>
<rect x="0.025" y="0.13" width="0.005" height="0.005"/>
<rect x="0.035" y="0.13" width="0.005" height="0.005"/>
<rect x="0" y="0.135" width="0.005" height="0.005"/>
<rect x="0.005" y="0.135" width="0.005" height="0.005"/>
<rect x="0.01" y="0.135" width="0.005" height="0.005"/>
<rect x="0.015" y="0.135" width="0.005" height="0.005"/>
<rect x="0.02" y="0.135" width="0.005" height="0.005"/>
<rect x="0.025" y="0.135" width="0.005" height="0.005"/>
<rect x="0.03" y="0.135" width="0.005" height="0.005"/>
<rect x="0.035" y="0.135" width="0.005" height="0.005"/>
</g>
<g>
<rect x="0.05" y="0.1" width="0.005" height="0.005"/>
<rect x="0.055" y="0.1" width="0.005" height="0.005"/>
<rect x="0.06" y="0.1" width="0.005" height="0.005"/>
<rect x="0.065" y="0.1" width="0.005" height="0.005"/>
<rect x="0.07" y="0.1" width="0.005" height="0.005"/>
<rect x="0.075" y="0.1" width="0.005" height="0.005"/>
<rect x="0.08" y="0.1" width="0.005" height="0.005"/>
<rect x="0.085" y="0.1" width="0.005" height="0.005"/>
<rect x="0.05" y="0.105" width="0.005" height="0.005"/>
<rect x="0.055" y="0.105" width="0.005" height="0.005"/>
<rect x="0.06" y="0.105" width="0.005" height="0.005"/>
<rect x="0.07" y="0.105" width="0.005" height="0.005"/>
<rect x="0.075" y="0.105" width="0.005" height="0.005"/>
<rect x="0.085" y="0.105" width="0.005" height="0.005"/>
<rect x="0.05" y="0.11" width="0.005" height="0.005"/>
<rect x="0.06" y="0.11" width="0.005" height="0.005"/>
<rect x="0.065" y="0.11" width="0.005" height="0.005"/>
<rect x="0.075" y="0.11" width="0.005" height="0.005"/>
<rect x="0.085" y="0.11" width="0.005" height="0.005"/>
<rect x="0.05" y="0.115" width="0.005" height="0.005"/>
<rect x="0.06" y="0.115" width="0.005" height="0.005"/>
<rect x="0.07" y="0.115" width="0.005" height="0.005"/>
<rect x="0.085" y="0.115" width="0.005" height="0.005"/>
<rect x="0.05" y="0.12" width="0.005" height="0.005"/>
<rect x="0.055" y="0.12" width="0.005" height="0.005"/>
<rect x="0.065" y="0.12" width="0.005" height="0.005"/>
<rect x="0.07" y="0.12" width="0.005" height="0.005"/>
<rect x="0.075" y="0.12" width="0.005" height="0.005"/>
<rect x="0.08" y="0.12" width="0.005" height="0.005"/>
<rect x="0.085" y="0.12" width="0.005" height="0.005"/>
<rect x="0.05" y="0.125" width="0.005" height="0.005"/>
<rect x="0.055" y="0.125" width="0.005" height="0.005"/>
<rect x="0.065" y="0.125" width="0.005" height="0.005"/>
<rect x="0.07" y="0.125" width="0.005" height="0.005"/>
<rect x="0.075" y="0.125" width="0.005" height="0.005"/>
<rect x="0.085" y="0.125" width="0.005" height="0.005"/>
<rect x="0.05" y="0.13" width="0.005" height="0.005"/>
<rect x="0.065" y="0.13" width="0.005" height="0.005"/>
<rect x="0.07" y="0.13" width="0.005" height="0.005"/>
<rect x="0.08" y="0.13" width="0.005" height="0.005"/>
<rect x="0.085" y="0.13" width="0.005" height="0.005"/>
<rect x="0.05" y="0.135" width="0.005" height="0.005"/>
<rect x="0.055" y="0.135" width="0.005" height="0.005"/>
<rect x="0.06" y="0.135" width="0.005" height="0.005"/>
<rect x="0.065" y="0.135" width="0.005" height="0.005"/>
<rect x="0.07" y="0.135" width="0.005" height="0.005"/>
<rect x="0.075" y="0.135" width="0.005" height="0.005"/>
<rect x="0.08" y="0.135" width="0.005" height="0.005"/>
<rect x="0.085" y="0.135" width="0.005" height="0.005"/>
</g>
<g>
<rect x="0.1" y="0.1" width="0.005" height="0.005"/>
<rect x="0.105" y="0.1" width="0.005" height="0.005"/>
<rect x="0.11" y="0.1" width="0.005" height="0.005"/>
<rect x="0.115" y="0.1" width="0.005" height="0.005"/>
<rect x="0.12" y="0.1" width="0.005" height="0.005"/>
<rect x="0.125" y="0.1" width="0.005" height="0.005"/>
<rect x="0.13" y="0.1" width="0.005" height="0.005"/>
<rect x="0.135" y="0.1" width="0.005" height="0.005"/>
<rect x="0.1" y="0.105" width="0.005" height="0.005"/>
<rect x="0.105" y="0.105" width="0.005" height="0.005"/>
<rect x="0.11" y="0.105" width="0.005" height="0.005"/>
<rect x="0.125" y="0.105" width="0.005" height="0.005"/>
<rect x="0.135" y="0.105" width="0.005" height="0.005"/>
<rect x="0.1" y="0.11" width="0.005" height="0.005"/>
<rect x="0.105" y="0.11" width="0.005" height="0.005"/>
<rect x="0.11" y="0.11" width="0.005" height="0.005"/>
<rect x="0.135" y="0.11" width="0.005" height="0.005"/>
<rect x="0.1" y="0.115" width="0.005" height="0.005"/>
<rect x="0.12" y="0.115" width="0.005" height="0.005"/>
<rect x="0.13" y="0.115" width="0.005" height="0.005"/>
<rect x="0.135" y="0.115" width="0.005" height="0.005"/>
<rect x="0.1" y="0.12" width="0.005" height="0.005"/>
<rect x="0.105" y="0.12" width="0.005" height="0.005"/>
<rect x="0.115" y="0.12" width="0.005" height="0.005"/>
<rect x="0.12" y="0.12" width="0.005" height="0.005"/>
<rect x="0.125" y="0.12" width="0.005" height="0.005"/>
<rect x="0.135" y="0.12" width="0.005" height="0.005"/>
<rect x="0.1" y="0.125" width="0.005" height="0.005"/>
<rect x="0.11" y="0.125" width="0.005" height="0.005"/>
<rect x="0.13" y="0.125" width="0.005" height="0.005"/>
<rect x="0.135" y="0.125" width="0.005" height="0.005"/>
<rect x="0.1" y="0.13" width="0.005" height="0.005"/>
<rect x="0.105" y="0.13" width="0.005" height="0.005"/>
<rect x="0.11" y="0.13" width="0.005" height="0.005"/>
<rect x="0.115" y="0.13" width="0.005" height="0.005"/>
<rect x="0.13" y="0.13" width="0.005" height="0.005"/>
<rect x="0.135" y="0.13" width="0.005" height="0.005"/>
<rect x="0.1" y="0.135" width="0.005" height="0.005"/>
<rect x="0.105" y="0.135" width="0.005" height="0.005"/>
<rect x="0.11" y="0.135" width="0.005" height="0.005"/>
<rect x="0.115" y="0.135" width="0.005" height="0.005"/>
<rect x="0.12" y="0.135" width="0.005" height="0.005"/>
<rect x="0.125" y="0.135" width="0.005" height="0.005"/>
<rect x="0.13" y="0.135" width="0.005" height="0.005"/>
<rect x="0.135" y="0.135" width="0.005" height="0.005"/>
</g>
<g>
<rect x="0.15" y="0.1" width="0.005" height="0.005"/>
<rect x="0.155" y="0.1" width="0.005" height="0.005"/>
<rect x="0.16" y="0.1" width="0.005" height="0.005"/>
<rect x="0.165" y="0.1" width="0.005" height="0.005"/>
<rect x="0.17" y="0.1" width="0.005" height="0.005"/>
<rect x="0.175" y="0.1" width="0.005" height="0.005"/>
<rect x="0.18" y="0.1" width="0.005" height="0.005"/>
<rect x="0.185" y="0.1" width="0.005" height="0.005"/>
<rect x="0.15" y="0.105" width="0.005" height="0.005"/>
<rect x="0.155" y="0.105" width="0.005" height="0.005"/>
<rect x="0.16" y="0.105" width="0.005" height="0.005"/>
<rect x="0.185" y="0.105" width="0.005" height="0.005"/>
<rect x="0.15" y="0.11" width="0.005" height="0.005"/>
<rect x="0.185" y="0.11" width="0.005" height="0.005"/>
<rect x="0.15" y="0.115" width="0.005" height="0.005"/>
<rect x="0.16" y="0.115" width="0.005" height="0.005"/>
<rect x="0.165" y="0.115" width="0.005" height="0.005"/>
<rect x="0.175" y="0.115" width="0.005" height="0.005"/>
<rect x="0.185" y="0.115" width="0.005" height="0.005"/>
<rect x="0.15" y="0.12" width="0.005" height="0.005"/>
<rect x="0.16" y="0.12" width="0.005" height="0.005"/>
<rect x="0.165" y="0.12" width="0.005" height="0.005"/>
<rect x="0.17" y="0.12" width="0.005" height="0.005"/>
<rect x="0.18" y="0.12" width="0.005" height="0.005"/>
<rect x="0.185" y="0.12" width="0.005" height="0.005"/>
<rect x="0.15" y="0.125" width="0.005" height="0.005"/>
<rect x="0.165" y="0.125" width="0.005" height="0.005"/>
<rect x="0.17" y="0.125" width="0.005" height="0.005"/>
<rect x="0.185" y="0.125" width="0.005" height="0.005"/>
<rect x="0.15" y="0.13" width="0.005" height="0.005"/>
<rect x="0.155" y="0.13" width="0.005" height="0.005"/>
<rect x="0.165" y="0.13" width="0.005" height="0.005"/>
<rect x="0.175" y="0.13" width="0.005" height="0.005"/>
<rect x="0.185" y="0.13" width="0.005" height="0.005"/>
<rect x="0.15" y="0.135" width="0.005" height="0.005"/>
<rect x="0.155" y="0.135" width="0.005" height="0.005"/>
<rect x="0.16" y="0.135" width="0.005" height="0.005"/>
<rect x="0.165" y="0.135" width="0.005" height="0.005"/>
<rect x="0.17" y="0.135" width="0.005" height="0.005"/>
<rect x="0.175" y="0.135" width="0.005" height="0.005"/>
<rect x="0.18" y="0.135" width="0.005" height="0.005"/>
<rect x="0.185" y="0.135" width="0.005" height="0.005"/>
</g>
<g>
<rect x="0" y="0.15" width="0.005" height="0.005"/>
<rect x="0.005" y="0.15" width="0.005" height="0.005"/>
<rect x="0.01" y="0.15" width="0.005" height="0.005"/>
<rect x="0.015" y="0.15" width="0.005" height="0.005"/>
<rect x="0.02" y="0.15" width="0.005" height="0.005"/>
<rect x="0.025" y="0.15" width="0.005" height="0.005"/>
<rect x="0.03" y="0.15" width="0.005" height="0.005"/>
<rect x="0.035" y="0.15" width="0.005" height="0.005"/>
<rect x="0" y="0.155" width="0.005" height="0.005"/>
<rect x="0.005" y="0.155" width="0.005" height="0.005"/>
<rect x="0.015" y="0.155" width="0.005" height="0.005"/>
<rect x="0.02" y="0.155" width="0.005" height="0.005"/>
<rect x="0.025" y="0.155" width="0.005" height="0.005"/>
<rect x="0.03" y="0.155" width="0.005" height="0.005"/>
<rect x="0.035" y="0.155" width="0.005" height="0.005"/>
<rect x="0" y="0.16" width="0.005" height="0.005"/>
<rect x="0.02" y="0.16" width="0.005" height="0.005"/>
<rect x="0.03" y="0.16" width="0.005" height="0.005"/>
<rect x="0.035" y="0.16" width="0.005" height="0.005"/>
<rect x="0" y="0.165" width="0.005" height="0.005"/>
<rect x="0.005" y="0.165" width="0.005" height="0.005"/>
<rect x="0.01" y="0.165" width="0.005" height="0.005"/>
<rect x="0.02" y="0.165" width="0.005" height="0.005"/>
<rect x="0.025" y="0.165" width="0.005" height="0.005"/>
<rect x="0.035" y="0.165" width="0.005" height="0.005"/>
<rect x="0" y="0.17" width="0.005" height="0.005"/>
<rect x="0.005" y="0.17" width="0.005" height="0.005"/>
<rect x="0.015" y="0.17" width="0.005" height="0.005"/>
<rect x="0.02" y="0.17" width="0.005" height="0.005"/>
<rect x="0.035" y="0.17" width="0.005" height="0.005"/>
<rect x="0" y="0.175" width="0.005" height="0.005"/>
<rect x="0.005" y="0.175" width="0.005" height="0.005"/>
<rect x="0.01" y="0.175" width="0.005" height="0.005"/>
<rect x="0.02" y="0.175" width="0.005" height="0.005"/>
<rect x="0.03" y="0.175" width="0.005" height="0.005"/>
<rect x="0.035" y="0.175" width="0.005" height="0.005"/>
<rect x="0" y="0.18" width="0.005" height="0.005"/>
<rect x="0.005" y="0.18" width="0.005" height="0.005"/>
<rect x="0.02" y="0.18" width="0.005" height="0.005"/>
<rect x="0.03" y="0.18" width="0.005" height="0.005"/>
<rect x="0.035" y="0.18" width="0.005" height="0.005"/>
<rect x="0" y="0.185" width="0.005" height="0.005"/>
<rect x="0.005" y="0.185" width="0.005" height="0.005"/>
<rect x="0.01" y="0.185" width="0.005" height="0.005"/>
<rect x="0.015" y="0.185" width="0.005" height="0.005"/>
<rect x="0.02" y="0.185" width="0.005" height="0.005"/>
<rect x="0.025" y="0.185" width="0.005" height="0.005"/>
<rect x="0.03" y="0.185" width="0.005" height="0.005"/>
<rect x="0.035" y="0.185" width="0.005" height="0.005"/>
</g>
<g>
<rect x="0.05" y="0.15" width="0.005" height="0.005"/>
<rect x="0.055" y="0.15" width="0.005" height="0.005"/>
<rect x="0.06" y="0.15" width="0.005" height="0.005"/>
<rect x="0.065" y="0.15" width="0.005" height="0.005"/>
<rect x="0.07" y="0.15" width="0.005" height="0.005"/>
<rect x="0.075" y="0.15" width="0.005" height="0.005"/>
<rect x="0.08" y="0.15" width="0.005" height="0.005"/>
<rect x="0.085" y="0.15" width="0.005" height="0.005"/>
<rect x="0.05" y="0.155" width="0.005" height="0.005"/>
<rect x="0.055" y="0.155" width="0.005" height="0.005"/>
<rect x="0.065" y="0.155" width="0.005" height="0.005"/>
<rect x="0.07" y="0.155" width="0.005" height="0.005"/>
<rect x="0.075" y="0.155" width="0.005" height="0.005"/>
<rect x="0.085" y="0.155" width="0.005" height="0.005"/>
<rect x="0.05" y="0.16" width="0.005" height="0.005"/>
<rect x="0.065" y="0.16" width="0.005" height="0.005"/>
<rect x="0.075" y="0.16" width="0.005" height="0.005"/>
<rect x="0.08" y="0.16" width="0.005" height="0.005"/>
<rect x="0.085" y="0.16" width="0.005" height="0.005"/>
<rect x="0.05" y="0.165" width="0.005" height="0.005"/>
<rect x="0.06" y="0.165" width="0.005" height="0.005"/>
<rect x="0.075" y="0.165" width="0.005" height="0.005"/>
<rect x="0.085" y="0.165" width="0.005" height="0.005"/>
<rect x="0.05" y="0.17" width="0.005" height="0.005"/>
<rect x="0.055" y="0.17" width="0.005" height="0.005"/>
<rect x="0.06" y="0.17" width="0.005" height="0.005"/>
<rect x="0.065" y="0.17" width="0.005" height="0.005"/>
<rect x="0.07" y="0.17" width="0.005" height="0.005"/>
<rect x="0.085" y="0.17" width="0.005" height="0.005"/>
<rect x="0.05" y="0.175" width="0.005" height="0.005"/>
<rect x="0.06" y="0.175" width="0.005" height="0.005"/>
<rect x="0.065" y="0.175" width="0.005" height="0.005"/>
<rect x="0.07" y="0.175" width="0.005" height="0.005"/>
<rect x="0.075" y="0.175" width="0.005" height="0.005"/>
<rect x="0.085" y="0.175" width="0.005" height="0.005"/>
<rect x="0.05" y="0.18" width="0.005" height="0.005"/>
<rect x="0.055" y="0.18" width="0.005" height="0.005"/>
<rect x="0.085" y="0.18" width="0.005" height="0.005"/>
<rect x="0.05" y="0.185" width="0.005" height="0.005"/>
<rect x="0.055" y="0.185" width="0.005" height="0.005"/>
<rect x="0.06" y="0.185" width="0.005" height="0.005"/>
<rect x="0.065" y="0.185" width="0.005" height="0.005"/>
<rect x="0.07" y="0.185" width="0.005" height="0.005"/>
<rect x="0.075" y="0.185" width="0.005" height="0.005"/>
<rect x="0.08" y="0.185" width="0.005" height="0.005"/>
<rect x="0.085" y="0.185" width="0.005" height="0.005"/>
</g>
<g>
<rect x="0.1" y="0.15" width="0.005" height="0.005"/>
<rect x="0.105" y="0.15" width="0.005" height="0.005"/>
<rect x="0.11" y="0.15" width="0.005" height="0.005"/>
<rect x="0.115" y="0.15" width="0.005" height="0.005"/>
<rect x="0.12" y="0.15" width="0.005" height="0.005"/>
<rect x="0.125" y="0.15" width="0.005" height="0.005"/>
<rect x="0.13" y="0.15" width="0.005" height="0.005"/>
<rect x="0.135" y="0.15" width="0.005" height="0.005"/>
<rect x="0.1" y="0.155" width="0.005" height="0.005"/>
<rect x="0.105" y="0.155" width="0.005" height="0.005"/>
<rect x="0.115" y="0.155" width="0.005" height="0.005"/>
<rect x="0.12" y="0.155" width="0.005" height="0.005"/>
<rect x="0.135" y="0.155" width="0.005" height="0.005"/>
<rect x="0.1" y="0.16" width="0.005" height="0.005"/>
<rect x="0.11" y="0.16" width="0.005" height="0.005"/>
<rect x="0.12" y="0.16" width="0.005" height="0.005"/>
<rect x="0.125" y="0.16" width="0.005" height="0.005"/>
<rect x="0.135" y="0.16" width="0.005" height="0.005"/>
<rect x="0.1" y="0.165" width="0.005" height="0.005"/>
<rect x="0.115" y="0.165" width="0.005" height="0.005"/>
<rect x="0.125" y="0.165" width="0.005" height="0.005"/>
<rect x="0.13" y="0.165" width="0.005" height="0.005"/>
<rect x="0.135" y="0.165" width="0.005" height="0.005"/>
<rect x="0.1" y="0.17" width="0.005" height="0.005"/>
<rect x="0.11" y="0.17" width="0.005" height="0.005"/>
<rect x="0.115" y="0.17" width="0.005" height="0.005"/>
<rect x="0.125" y="0.17" width="0.005" height="0.005"/>
<rect x="0.13" y="0.17" width="0.005" height="0.005"/>
<rect x="0.135" y="0.17" width="0.005" height="0.005"/>
<rect x="0.1" y="0.175" width="0.005" height="0.005"/>
<rect x="0.105" y="0.175" width="0.005" height="0.005"/>
<rect x="0.11" y="0.175" width="0.005" height="0.005"/>
<rect x="0.135" y="0.175" width="0.005" height="0.005"/>
<rect x="0.1" y="0.18" width="0.005" height="0.005"/>
<rect x="0.11" y="0.18" width="0.005" height="0.005"/>
<rect x="0.12" y="0.18" width="0.005" height="0.005"/>
<rect x="0.125" y="0.18" width="0.005" height="0.005"/>
<rect x="0.135" y="0.18" width="0.005" height="0.005"/>
<rect x="0.1" y="0.185" width="0.005" height="0.005"/>
<rect x="0.105" y="0.185" width="0.005" height="0.005"/>
<rect x="0.11" y="0.185" width="0.005" height="0.005"/>
<rect x="0.115" y="0.185" width="0.005" height="0.005"/>
<rect x="0.12" y="0.185" width="0.005" height="0.005"/>
<rect x="0.125" y="0.185" width="0.005" height="0.005"/>
<rect x="0.13" y="0.185" width="0.005" height="0.005"/>
<rect x="0.135" y="0.185" width="0.005" height="0.005"/>
</g>
<g>
<rect x="0.15" y="0.15" width="0.005" height="0.005"/>
<rect x="0.155" y="0.15" width="0.005" height="0.005"/>
<rect x="0.16" y="0.15" width="0.005" height="0.005"/>
<rect x="0.165" y="0.15" width="0.005" height="0.005"/>
<rect x="0.17" y="0.15" width="0.005" height="0.005"/>
<rect x="0.175" y="0.15" width="0.005" height="0.005"/>
<rect x="0.18" y="0.15" width="0.005" height="0.005"/>
<rect x="0.185" y="0.15" width="0.005" height="0.005"/>
<rect x="0.15" y="0.155" width="0.005" height="0.005"/>
<rect x="0.155" y="0.155" width="0.005" height="0.005"/>
<rect x="0.165" y="0.155" width="0.005" height="0.005"/>
<rect x="0.175" y="0.155" width="0.005" height="0.005"/>
<rect x="0.18" y="0.155" width="0.005" height="0.005"/>
<rect x="0.185" y="0.155" width="0.005" height="0.005"/>
<rect x="0.15" y="0.16" width="0.005" height="0.005"/>
<rect x="0.16" y="0.16" width="0.005" height="0.005"/>
<rect x="0.165" y="0.16" width="0.005" height="0.005"/>
<rect x="0.175" y="0.16" width="0.005" height="0.005"/>
<rect x="0.18" y="0.16" width="0.005" height="0.005"/>
<rect x="0.185" y="0.16" width="0.005" height="0.005"/>
<rect x="0.15" y="0.165" width="0.005" height="0.005"/>
<rect x="0.155" y="0.165" width="0.005" height="0.005"/>
<rect x="0.17" y="0.165" width="0.005" height="0.005"/>
<rect x="0.175" y="0.165" width="0.005" height="0.005"/>
<rect x="0.18" y="0.165" width="0.005" height="0.005"/>
<rect x="0.185" y="0.165" width="0.005" height="0.005"/>
<rect x="0.15" y="0.17" width="0.005" height="0.005"/>
<rect x="0.155" y="0.17" width="0.005" height="0.005"/>
<rect x="0.165" y="0.17" width="0.005" height="0.005"/>
<rect x="0.175" y="0.17" width="0.005" height="0.005"/>
<rect x="0.18" y="0.17" width="0.005" height="0.005"/>
<rect x="0.185" y="0.17" width="0.005" height="0.005"/>
<rect x="0.15" y="0.175" width="0.005" height="0.005"/>
<rect x="0.16" y="0.175" width="0.005" height="0.005"/>
<rect x="0.165" y="0.175" width="0.005" height="0.005"/>
<rect x="0.18" y="0.175" width="0.005" height="0.005"/>
<rect x="0.185" y="0.175" width="0.005" height="0.005"/>
<rect x="0.15" y="0.18" width="0.005" height="0.005"/>
<rect x="0.16" y="0.18" width="0.005" height="0.005"/>
<rect x="0.18" y="0.18" width="0.005" height="0.005"/>
<rect x="0.185" y="0.18" width="0.005" height="0.005"/>
<rect x="0.15" y="0.185" width="0.005" height="0.005"/>
<rect x="0.155" y="0.185" width="0.005" height="0.005"/>
<rect x="0.16" y="0.185" width="0.005" height="0.005"/>
<rect x="0.165" y="0.185" width="0.005" height="0.005"/>
<rect x="0.17" y="0.185" width="0.005" height="0.005"/>
<rect x="0.175" y="0.185" width="0.005" height="0.005"/>
<rect x="0.18" y="0.185" width="0.005" height="0.005"/>
<rect x="0.185" y="0.185" width="0.005" height="0.005"/>
</g>
<g>
<rect x="0" y="0.2" width="0.005" height="0.005"/>
<rect x="0.005" y="0.2" width="0.005" height="0.005"/>
<rect x="0.01" y="0.2" width="0.005" height="0.005"/>
<rect x="0.015" y="0.2" width="0.005" height="0.005"/>
<rect x="0.02" y="0.2" width="0.005" height="0.005"/>
<rect x="0.025" y="0.2" width="0.005" height="0.005"/>
<rect x="0.03" y="0.2" width="0.005" height="0.005"/>
<rect x="0.035" y="0.2" width="0.005" height="0.005"/>
<rect x="0" y="0.205" width="0.005" height="0.005"/>
<rect x="0.005" y="0.205" width="0.005" height="0.005"/>
<rect x="0.015" y="0.205" width="0.005" height="0.005"/>
<rect x="0.03" y="0.205" width="0.005" height="0.005"/>
<rect x="0.035" y="0.205" width="0.005" height="0.005"/>
<rect x="0" y="0.21" width="0.005" height="0.005"/>
<rect x="0.005" y="0.21" width="0.005" height="0.005"/>
<rect x="0.02" y="0.21" width="0.005" height="0.005"/>
<rect x="0.025" y="0.21" width="0.005" height="0.005"/>
<rect x="0.035" y="0.21" width="0.005" height="0.005"/>
<rect x="0" y="0.215" width="0.005" height="0.005"/>
<rect x="0.005" y="0.215" width="0.005" height="0.005"/>
<rect x="0.035" y="0.215" width="0.005" height="0.005"/>
<rect x="0" y="0.22" width="0.005" height="0.005"/>
<rect x="0.015" y="0.22" width="0.005" height="0.005"/>
<rect x="0.025" y="0.22" width="0.005" height="0.005"/>
<rect x="0.035" y="0.22" width="0.005" height="0.005"/>
<rect x="0" y="0.225" width="0.005" height="0.005"/>
<rect x="0.005" y="0.225" width="0.005" height="0.005"/>
<rect x="0.015" y="0.225" width="0.005" height="0.005"/>
<rect x="0.025" y="0.225" width="0.005" height="0.005"/>
<rect x="0.03" y="0.225" width="0.005" height="0.005"/>
<rect x="0.035" y="0.225" width="0.005" height="0.005"/>
<rect x="0" y="0.23" width="0.005" height="0.005"/>
<rect x="0.02" y="0.23" width="0.005" height="0.005"/>
<rect x="0.025" y="0.23" width="0.005" height="0.005"/>
<rect x="0.03" y="0.23" width="0.005" height="0.005"/>
<rect x="0.035" y="0.23" width="0.005" height="0.005"/>
<rect x="0" y="0.235" width="0.005" height="0.005"/>
<rect x="0.005" y="0.235" width="0.005" height="0.005"/>
<rect x="0.01" y="0.235" width="0.005" height="0.005"/>
<rect x="0.015" y="0.235" width="0.005" height="0.005"/>
<rect x="0.02" y="0.235" width="0.005" height="0.005"/>
<rect x="0.025" y="0.235" width="0.005" height="0.005"/>
<rect x="0.03" y="0.235" width="0.005" height="0.005"/>
<rect x="0.035" y="0.235" width="0.005" height="0.005"/>
</g>
<g>
<rect x="0.05" y="0.2" width="0.005" height="0.005"/>
<rect x="0.055" y="0.2" width="0.005" height="0.005"/>
<rect x="0.06" y="0.2" width="0.005" height="0.005"/>
<rect x="0.065" y="0.2" width="0.005" height="0.005"/>
<rect x="0.07" y="0.2" width="0.005" height="0.005"/>
<rect x="0.075" y="0.2" width="0.005" height="0.005"/>
<rect x="0.08" y="0.2" width="0.005" height="0.005"/>
<rect x="0.085" y="0.2" width="0.005" height="0.005"/>
<rect x="0.05" y="0.205" width="0.005" height="0.005"/>
<rect x="0.055" y="0.205" width="0.005" height="0.005"/>
<rect x="0.07" y="0.205" width="0.005" height="0.005"/>
<rect x="0.08" y="0.205" width="0.005" height="0.005"/>
<rect x="0.085" y="0.205" width="0.005" height="0.005"/>
<rect x="0.05" y="0.21" width="0.005" height="0.005"/>
<rect x="0.055" y="0.21" width="0.005" height="0.005"/>
<rect x="0.06" y="0.21" width="0.005" height="0.005"/>
<rect x="0.065" y="0.21" width="0.005" height="0.005"/>
<rect x="0.07" y="0.21" width="0.005" height="0.005"/>
<rect x="0.085" y="0.21" width="0.005" height="0.005"/>
<rect x="0.05" y="0.215" width="0.005" height="0.005"/>
<rect x="0.06" y="0.215" width="0.005" height="0.005"/>
<rect x="0.08" y="0.215" width="0.005" height="0.005"/>
<rect x="0.085" y="0.215" width="0.005" height="0.005"/>
<rect x="0.05" y="0.22" width="0.005" height="0.005"/>
<rect x="0.065" y="0.22" width="0.005" height="0.005"/>
<rect x="0.08" y="0.22" width="0.005" height="0.005"/>
<rect x="0.085" y="0.22" width="0.005" height="0.005"/>
<rect x="0.05" y="0.225" width="0.005" height="0.005"/>
<rect x="0.065" y="0.225" width="0.005" height="0.005"/>
<rect x="0.07" y="0.225" width="0.005" height="0.005"/>
<rect x="0.075" y="0.225" width="0.005" height="0.005"/>
<rect x="0.085" y="0.225" width="0.005" height="0.005"/>
<rect x="0.05" y="0.23" width="0.005" height="0.005"/>
<rect x="0.055" y="0.23" width="0.005" height="0.005"/>
<rect x="0.06" y="0.23" width="0.005" height="0.005"/>
<rect x="0.075" y="0.23" width="0.005" height="0.005"/>
<rect x="0.08" y="0.23" width="0.005" height="0.005"/>
<rect x="0.085" y="0.23" width="0.005" height="0.005"/>
<rect x="0.05" y="0.235" width="0.005" height="0.005"/>
<rect x="0.055" y="0.235" width="0.005" height="0.005"/>
<rect x="0.06" y="0.235" width="0.005" height="0.005"/>
<rect x="0.065" y="0.235" width="0.005" height="0.005"/>
<rect x="0.07" y="0.235" width="0.005" height="0.005"/>
<rect x="0.075" y="0.235" width="0.005" height="0.005"/>
<rect x="0.08" y="0.235" width="0.005" height="0.005"/>
<rect x="0.085" y="0.235" width="0.005" height="0.005"/>
</g>
<g>
<rect x="0.1" y="0.2" width="0.005" height="0.005"/>
<rect x="0.105" y="0.2" width="0.005" height="0.005"/>
<rect x="0.11" y="0.2" width="0.005" height="0.005"/>
<rect x="0.115" y="0.2" width="0.005" height="0.005"/>
<rect x="0.12" y="0.2" width="0.005" height="0.005"/>
<rect x="0.125" y="0.2" width="0.005" height="0.005"/>
<rect x="0.13" y="0.2" width="0.005" height="0.005"/>
<rect x="0.135" y="0.2" width="0.005" height="0.005"/>
<rect x="0.1" y="0.205" width="0.005" height="0.005"/>
<rect x="0.105" y="0.205" width="0.005" height="0.005"/>
<rect x="0.12" y="0.205" width="0.005" height="0.005"/>
<rect x="0.13" y="0.205" width="0.005" height="0.005"/>
<rect x="0.135" y="0.205" width="0.005" height="0.005"/>
<rect x="0.1" y="0.21" width="0.005" height="0.005"/>
<rect x="0.13" y="0.21" width="0.005" height="0.005"/>
<rect x="0.135" y="0.21" width="0.005" height="0.005"/>
<rect x="0.1" y="0.215" width="0.005" height="0.005"/>
<rect x="0.105" y="0.215" width="0.005" height="0.005"/>
<rect x="0.115" y="0.215" width="0.005" height="0.005"/>
<rect x="0.12" y="0.215" width="0.005" height="0.005"/>
<rect x="0.13" y="0.215" width="0.005" height="0.005"/>
<rect x="0.135" y="0.215" width="0.005" height="0.005"/>
<rect x="0.1" y="0.22" width="0.005" height="0.005"/>
<rect x="0.11" y="0.22" width="0.005" height="0.005"/>
<rect x="0.115" y="0.22" width="0.005" height="0.005"/>
<rect x="0.135" y="0.22" width="0.005" height="0.005"/>
<rect x="0.1" y="0.225" width="0.005" height="0.005"/>
<rect x="0.105" y="0.225" width="0.005" height="0.005"/>
<rect x="0.11" y="0.225" width="0.005" height="0.005"/>
<rect x="0.12" y="0.225" width="0.005" height="0.005"/>
<rect x="0.125" y="0.225" width="0.005" height="0.005"/>
<rect x="0.13" y="0.225" width="0.005" height="0.005"/>
<rect x="0.135" y="0.225" width="0.005" height="0.005"/>
<rect x="0.1" y="0.23" width="0.005" height="0.005"/>
<rect x="0.105" y="0.23" width="0.005" height="0.005"/>
<rect x="0.115" y="0.23" width="0.005" height="0.005"/>
<rect x="0.12" y="0.23" width="0.005" height="0.005"/>
<rect x="0.125" y="0.23" width="0.005" height="0.005"/>
<rect x="0.135" y="0.23" width="0.005" height="0.005"/>
<rect x="0.1" y="0.235" width="0.005" height="0.005"/>
<rect x="0.105" y="0.235" width="0.005" height="0.005"/>
<rect x="0.11" y="0.235" width="0.005" height="0.005"/>
<rect x="0.115" y="0.235" width="0.005" height="0.005"/>
<rect x="0.12" y="0.235" width="0.005" height="0.005"/>
<rect x="0.125" y="0.235" width="0.005" height="0.005"/>
<rect x="0.13" y="0.235" width="0.005" height="0.005"/>
<rect x="0.135" y="0.235" width="0.005" height="0.005"/>
</g>
<g>
<rect x="0.15" y="0.2" width="0.005" height="0.005"/>
<rect x="0.155" y="0.2" width="0.005" height="0.005"/>
<rect x="0.16" y="0.2" width="0.005" height="0.005"/>
<rect x="0.165" y="0.2" width="0.005" height="0.005"/>
<rect x="0.17" y="0.2" width="0.005" height="0.005"/>
<rect x="0.175" y="0.2" width="0.005" height="0.005"/>
<rect x="0.18" y="0.2" width="0.005" height="0.005"/>
<rect x="0.185" y="0.2" width="0.005" height="0.005"/>
<rect x="0.15" y="0.205" width="0.005" height="0.005"/>
<rect x="0.155" y="0.205" width="0.005" height="0.005"/>
<rect x="0.185" y="0.205" width="0.005" height="0.005"/>
<rect x="0.15" y="0.21" width="0.005" height="0.005"/>
<rect x="0.16" y="0.21" width="0.005" height="0.005"/>
<rect x="0.165" y="0.21" width="0.005" height="0.005"/>
<rect x="0.17" y="0.21" width="0.005" height="0.005"/>
<rect x="0.185" y="0.21" width="0.005" height="0.005"/>
<rect x="0.15" y="0.215" width="0.005" height="0.005"/>
<rect x="0.155" y="0.215" width="0.005" height="0.005"/>
<rect x="0.16" y="0.215" width="0.005" height="0.005"/>
<rect x="0.165" y="0.215" width="0.005" height="0.005"/>
<rect x="0.175" y="0.215" width="0.005" height="0.005"/>
<rect x="0.185" y="0.215" width="0.005" height="0.005"/>
<rect x="0.15" y="0.22" width="0.005" height="0.005"/>
<rect x="0.155" y="0.22" width="0.005" height="0.005"/>
<rect x="0.17" y="0.22" width="0.005" height="0.005"/>
<rect x="0.175" y="0.22" width="0.005" height="0.005"/>
<rect x="0.18" y="0.22" width="0.005" height="0.005"/>
<rect x="0.185" y="0.22" width="0.005" height="0.005"/>
<rect x="0.15" y="0.225" width="0.005" height="0.005"/>
<rect x="0.17" y="0.225" width="0.005" height="0.005"/>
<rect x="0.185" y="0.225" width="0.005" height="0.005"/>
<rect x="0.15" y="0.23" width="0.005" height="0.005"/>
<rect x="0.16" y="0.23" width="0.005" height="0.005"/>
<rect x="0.17" y="0.23" width="0.005" height="0.005"/>
<rect x="0.18" y="0.23" width="0.005" height="0.005"/>
<rect x="0.185" y="0.23" width="0.005" height="0.005"/>
<rect x="0.15" y="0.235" width="0.005" height="0.005"/>
<rect x="0.155" y="0.235" width="0.005" height="0.005"/>
<rect x="0.16" y="0.235" width="0.005" height="0.005"/>
<rect x="0.165" y="0.235" width="0.005" height="0.005"/>
<rect x="0.17" y="0.235" width="0.005" height="0.005"/>
<rect x="0.175" y="0.235" width="0.005" height="0.005"/>
<rect x="0.18" y="0.235" width="0.005" height="0.005"/>
<rect x="0.185" y="0.235" width="0.005" height="0.005"/>
</g>
</g></svg>